<?xml version="1.0" encoding="UTF-8" standalone="no"?>
<!-- CONTENTSCALE:0.80 -->
<!-- OFFSETY:20        -->
<!-- 0x0
     0x0 -->
<svg
   xmlns:dc="http://purl.org/dc/elements/1.1/"
   xmlns:cc="http://creativecommons.org/ns#"
   xmlns:rdf="http://www.w3.org/1999/02/22-rdf-syntax-ns#"
   xmlns:svg="http://www.w3.org/2000/svg"
   xmlns="http://www.w3.org/2000/svg"
   xmlns:sodipodi="http://sodipodi.sourceforge.net/DTD/sodipodi-0.dtd"
   xmlns:inkscape="http://www.inkscape.org/namespaces/inkscape"
   width="1116.141968"
   height="1559.055054"
   id="svg"
   version="1.1"
   inkscape:version="0.48.3.1 r9886"
   sodipodi:docname="hpdpdxl_315x440_201116.svg">
  <sodipodi:namedview
     pagecolor="#cccccc"
     bordercolor="#666666"
     borderopacity="1"
     objecttolerance="10"
     gridtolerance="10"
     guidetolerance="10"
     inkscape:pageopacity="1"
     inkscape:pageshadow="2"
     id="namedview"
     showgrid="false">
    <sodipodi:guide
       position="70,1369"
       orientation="0,976.141732"
       id="guide2992" />
    <sodipodi:guide
       position="1046,1369"
       orientation="1259.055118,0"
       id="guide2994" />
    <sodipodi:guide
       position="1046,110"
       orientation="0,-976.141732"
       id="guide2996" />
    <sodipodi:guide
       position="70,110"
       orientation="-1259.055118,0"
       id="guide2998" />
  </sodipodi:namedview>
  <g
     inkscape:groupmode="layer"
     id="pageref"
     inkscape:label="XX_PAGE"
     style="display:inline"
     sodipodi:insensitive="true">
    <path
       inkscape:connector-curvature="0"
       id="page"
       d="m 0,-6.438906231e-5 1116.141732,0 0,1559.05511838906227 -1116.141732,0 z"
       style="fill:#ffffff;stroke:none;display:inline"
       sodipodi:nodetypes="ccccc"
       sodipodi:insensitive="true" />
  </g>
</svg>
