<?xml version="1.0" encoding="UTF-8" standalone="no"?>
<!-- CONTENTSCALE:0.55 -->
<!-- OFFSETY:22        -->
<!-- 20x14 18x13 16x12 15x11 14x10
     12x9 11x8 10x7 8x6 7x5 6x4    -->
<svg
   xmlns:dc="http://purl.org/dc/elements/1.1/"
   xmlns:cc="http://creativecommons.org/ns#"
   xmlns:rdf="http://www.w3.org/1999/02/22-rdf-syntax-ns#"
   xmlns:svg="http://www.w3.org/2000/svg"
   xmlns="http://www.w3.org/2000/svg"
   xmlns:sodipodi="http://sodipodi.sourceforge.net/DTD/sodipodi-0.dtd"
   xmlns:inkscape="http://www.inkscape.org/namespaces/inkscape"
   width="1052"
   height="1488"
   id="svg"
   version="1.1"
   inkscape:version="0.48.3.1 r9886"
   sodipodi:docname="pergaminfit_A4_200325.svg">
  <sodipodi:namedview
     pagecolor="#cccccc"
     bordercolor="#666666"
     borderopacity="1"
     objecttolerance="10"
     gridtolerance="10"
     guidetolerance="10"
     inkscape:pageopacity="1"
     inkscape:pageshadow="2"
     id="namedview"
     showgrid="false">
    <sodipodi:guide
       position="909.4,244.64"
       orientation="0,-766.8"
       id="guide2999" />
    <sodipodi:guide
       position="142.6,244.64"
       orientation="-998.72,0"
       id="guide3001" />
    <sodipodi:guide
       position="142.6,1243.36"
       orientation="0,766.8"
       id="guide3003" />
    <sodipodi:guide
       position="909.4,1243.36"
       orientation="998.72,0"
       id="guide3005" />
    <sodipodi:guide
       position="859.4,1193.36"
       orientation="898.72,0"
       id="guide3017" />
    <sodipodi:guide
       position="192.6,1193.36"
       orientation="0,666.8"
       id="guide3019" />
    <sodipodi:guide
       position="192.6,294.64"
       orientation="-898.72,0"
       id="guide3021" />
    <sodipodi:guide
       position="859.4,294.64"
       orientation="0,-666.8"
       id="guide3023" />
  </sodipodi:namedview>
  <g
     inkscape:groupmode="layer"
     id="pageref"
     inkscape:label="XX_PAGE"
     style="display:inline"
     sodipodi:insensitive="true">
    <path
       inkscape:connector-curvature="0"
       id="page"
       d="m 909.4,1243.36 -766.8,0 0,-998.72 766.8,0 z"
       style="fill:#ffffff;stroke:none;display:inline"
       sodipodi:nodetypes="ccccc"
       sodipodi:insensitive="true" />
  </g>
</svg>
