<?xml version="1.0" encoding="UTF-8" standalone="no"?>
<!-- CONTENTSCALE:0.55 -->
<!-- OFFSETY:22        -->
<!-- 20x14 18x13 16x12 15x11 14x10
     12x9 11x8 10x7 8x6 7x5 6x4    -->
<svg
   xmlns:dc="http://purl.org/dc/elements/1.1/"
   xmlns:cc="http://creativecommons.org/ns#"
   xmlns:rdf="http://www.w3.org/1999/02/22-rdf-syntax-ns#"
   xmlns:svg="http://www.w3.org/2000/svg"
   xmlns="http://www.w3.org/2000/svg"
   xmlns:sodipodi="http://sodipodi.sourceforge.net/DTD/sodipodi-0.dtd"
   xmlns:inkscape="http://www.inkscape.org/namespaces/inkscape"
   width="1052"
   height="1488"
   id="svg"
   version="1.1"
   inkscape:version="0.48.3.1 r9886"
   sodipodi:docname="roland_A4_200327.svg">
  <sodipodi:namedview
     pagecolor="#cccccc"
     bordercolor="#666666"
     borderopacity="1"
     objecttolerance="10"
     gridtolerance="10"
     guidetolerance="10"
     inkscape:pageopacity="1"
     inkscape:pageshadow="2"
     id="namedview"
     showgrid="false">
    <sodipodi:guide
       position="930.5,193.5"
       orientation="0,-809"
       id="guide3011" />
    <sodipodi:guide
       position="930.5,1294.5"
       orientation="1101,0"
       id="guide3013" />
    <sodipodi:guide
       position="121.5,1294.5"
       orientation="0,809"
       id="guide3015" />
    <sodipodi:guide
       position="121.5,193.5"
       orientation="-1101,0"
       id="guide3017" />
    <sodipodi:guide
       position="840.5,293.5"
       orientation="0,-629"
       id="guide3029" />
    <sodipodi:guide
       position="840.5,1194.5"
       orientation="901,0"
       id="guide3031" />
    <sodipodi:guide
       position="211.5,1194.5"
       orientation="0,629"
       id="guide3033" />
    <sodipodi:guide
       position="211.5,293.5"
       orientation="-901,0"
       id="guide3035" />
  </sodipodi:namedview>
  <g
     inkscape:groupmode="layer"
     id="pageref"
     inkscape:label="XX_PAGE"
     style="display:inline"
     sodipodi:insensitive="true">
    <path
       inkscape:connector-curvature="0"
       id="page"
       d="m 121.5,1294.5 0,-1101 809,0 0,1101 z"
       style="fill:#ffffff;stroke:none;display:inline"
       sodipodi:nodetypes="ccccc"
       sodipodi:insensitive="true" />
  </g>
</svg>
